<svg width="19" height="14" viewBox="0 0 19 14" fill="none" xmlns="http://www.w3.org/2000/svg">
<path fill-rule="evenodd" clip-rule="evenodd" d="M5.86623 1.06324C5.81855 0.779049 5.58275 0.564282 5.29535 0.543299C5.00795 0.522316 4.74345 0.700541 4.655 0.974799L2.9134 6.37496H0.666504C0.321329 6.37496 0.0415039 6.65479 0.0415039 6.99996C0.0415039 7.34512 0.321329 7.62496 0.666504 7.62496H3.36852C3.6398 7.62496 3.88009 7.44996 3.96335 7.19179L5.05765 3.79878L6.59052 12.9367C6.63883 13.2247 6.88012 13.4409 7.17167 13.4573C7.46325 13.4738 7.72734 13.2861 7.80775 13.0055L9.83234 5.93879L10.8989 9.67171C10.9676 9.91221 11.1732 10.0886 11.4214 10.12C11.6696 10.1515 11.9127 10.0318 12.0391 9.81587L13.3227 7.62496H14.2944C14.5665 8.58687 15.4508 9.29162 16.4998 9.29162C17.7655 9.29162 18.7915 8.26562 18.7915 6.99996C18.7915 5.73429 17.7655 4.70831 16.4998 4.70831C15.4508 4.70831 14.5665 5.41312 14.2944 6.37496H12.9645C12.7426 6.37496 12.5373 6.49262 12.4253 6.68404L11.6993 7.92312L10.4341 3.49494C10.3575 3.22671 10.1123 3.04174 9.83342 3.04164C9.55442 3.04153 9.30917 3.22632 9.23234 3.4945L7.3665 10.007L5.86623 1.06324ZM15.4582 6.99996C15.4582 6.42471 15.9245 5.95829 16.4998 5.95829C17.0752 5.95829 17.5415 6.42471 17.5415 6.99996C17.5415 7.57529 17.0752 8.04162 16.4998 8.04162C15.9245 8.04162 15.4582 7.57529 15.4582 6.99996Z" fill="#535353"/>
</svg>
