<svg width="14" height="16" viewBox="0 0 14 16" fill="none" xmlns="http://www.w3.org/2000/svg">
<path d="M8.65156 3.53033C8.94446 3.82322 9.41926 3.82322 9.71216 3.53033L10.4319 2.81066V13C10.4319 13.4142 10.7677 13.75 11.1819 13.75C11.5961 13.75 11.9319 13.4142 11.9319 13V2.81066L12.6516 3.53033C12.9445 3.82322 13.4193 3.82322 13.7122 3.53033C14.0051 3.23744 14.0051 2.76256 13.7122 2.46967L11.7122 0.469668C11.4193 0.176777 10.9445 0.176777 10.6516 0.469668L8.65156 2.46967C8.35866 2.76256 8.35866 3.23744 8.65156 3.53033Z" fill="#535353"/>
<path d="M3.93188 13.1893L4.65155 12.4697C4.94444 12.1768 5.41928 12.1768 5.71218 12.4697C6.00508 12.7626 6.00508 13.2374 5.71218 13.5303L3.71221 15.5303C3.41932 15.8232 2.94444 15.8232 2.65155 15.5303L0.651552 13.5303C0.358662 13.2374 0.358662 12.7626 0.651552 12.4697C0.944442 12.1768 1.41932 12.1768 1.71221 12.4697L2.43188 13.1893V3C2.43188 2.58579 2.76767 2.25 3.18188 2.25C3.59609 2.25 3.93188 2.58579 3.93188 3V13.1893Z" fill="#535353"/>
</svg>
