<svg width="20" height="20" viewBox="0 0 20 20" fill="none" xmlns="http://www.w3.org/2000/svg">
<path d="M8.33342 1.875C7.98824 1.875 7.70842 2.15483 7.70842 2.5V3.125H4.16675C3.82157 3.125 3.54175 3.40482 3.54175 3.75C3.54175 4.09518 3.82157 4.375 4.16675 4.375H15.8334C16.1786 4.375 16.4584 4.09518 16.4584 3.75C16.4584 3.40482 16.1786 3.125 15.8334 3.125H12.2917V2.5C12.2917 2.15483 12.0119 1.875 11.6667 1.875H8.33342Z" fill="#535353"/>
<path d="M8.33325 8.875C8.67842 8.875 8.95825 9.15483 8.95825 9.5V15.3333C8.95825 15.6785 8.67842 15.9583 8.33325 15.9583C7.98808 15.9583 7.70825 15.6785 7.70825 15.3333V9.5C7.70825 9.15483 7.98808 8.875 8.33325 8.875Z" fill="#535353"/>
<path d="M12.2917 9.5C12.2917 9.15483 12.0119 8.875 11.6667 8.875C11.3216 8.875 11.0417 9.15483 11.0417 9.5V15.3333C11.0417 15.6785 11.3216 15.9583 11.6667 15.9583C12.0119 15.9583 12.2917 15.6785 12.2917 15.3333V9.5Z" fill="#535353"/>
<path fill-rule="evenodd" clip-rule="evenodd" d="M4.99291 6.59767C5.02809 6.28115 5.29563 6.04169 5.61409 6.04169H14.3861C14.7045 6.04169 14.9721 6.28115 15.0072 6.59767L15.174 8.09879C15.4763 10.8199 15.4763 13.5661 15.174 16.2872L15.1576 16.435C15.0376 17.5151 14.2004 18.3764 13.1241 18.5271C11.0516 18.8173 8.94856 18.8173 6.87596 18.5271C5.79968 18.3764 4.96256 17.5151 4.84254 16.435L4.82613 16.2872C4.52378 13.5661 4.52378 10.8199 4.82613 8.09879L4.99291 6.59767ZM6.17349 7.29169L6.06848 8.23683C5.77633 10.8662 5.77633 13.5199 6.06848 16.1492L6.08489 16.2969C6.14182 16.8092 6.53883 17.2177 7.04927 17.2892C9.00689 17.5632 10.9932 17.5632 12.9508 17.2892C13.4613 17.2177 13.8583 16.8092 13.9152 16.2969L13.9316 16.1492C14.2238 13.5199 14.2238 10.8662 13.9316 8.23683L13.8266 7.29169H6.17349Z" fill="#535353"/>
</svg>
